[gd_scene load_steps=7 format=2]

[ext_resource path="res://scripts/utils/3d_background.gd" type="Script" id=1]
[ext_resource path="res://scripts/utils/background_camera.gd" type="Script" id=2]
[ext_resource path="res://environments/space.tres" type="Environment" id=3]
[ext_resource path="res://environments/default_env.tres" type="Environment" id=4]

[sub_resource type="World" id=1]
environment = ExtResource( 3 )
fallback_environment = ExtResource( 4 )

[sub_resource type="ViewportTexture" id=2]
viewport_path = NodePath("Viewport")

[node name="Background" type="Spatial"]
script = ExtResource( 1 )

[node name="Viewport" type="Viewport" parent="."]
size = Vector2( 1920, 1080 )
own_world = true
world = SubResource( 1 )
keep_3d_linear = true
usage = 3
render_target_v_flip = true
render_target_clear_mode = 1
gui_disable_input = true

[node name="Camera" type="Camera" parent="Viewport"]
transform = Transform( 1, -1.74846e-07, 0, 1.74846e-07, 1, 0, 0, 0, 1, 0, 0, 0 )
current = true
script = ExtResource( 2 )

[node name="CanvasLayer" type="CanvasLayer" parent="."]

[node name="ViewportOutput" type="TextureRect" parent="CanvasLayer"]
margin_right = 1920.0
margin_bottom = 1080.0
texture = SubResource( 2 )
__meta__ = {
"_edit_use_anchors_": false
}
