[gd_resource type="ConvexPolygonShape" format=2]

[resource]
points = PoolVector3Array( -8.65408, 1.91905, -28.9291, -8.55853, 4.43229, -28.7849, -8.47936, 1.635, -11.0207, -8.45306, 3.79929, -10.4137, -8.3144, 4.39679, -10.804, -8.06398, 1.65516, -28.8019, -7.93783, 4.68628, -11.1568, -7.61819, 2.87074, -5.66044, -7.54762, 2.25428, -5.75405, -6.63906, 0.0777525, -5.72417, -6.63355, 5.7848, -29.3168, -6.55017, -0.187019, -6.47171, -6.49582, -0.159213, -21.7365, -6.02058, -0.2344, -4.47497, -5.98362, 6.11065, -28.9891, -5.29797, 2.87835, -2.55444, -5.23137, 4.3861, -6.03187, -4.64304, 4.38944, -5.40059, -4.38444, 2.57368, -1.02913, -4.33452, 6.49802, -20.4793, -3.99707, 6.46901, -10.885, -3.91347, 1.91908, -34.6178, -3.87118, 4.43262, -34.4165, -3.24066, 0.686858, 2.75433, -3.22576, -0.2344, 2.66985, -2.64218, 4.44282, -35.83, -2.60357, -0.2344, 3.91344, -2.60341, 0.69836, 3.29051, -2.58559, 1.02344, 2.85084, -2.57837, 1.64498, -35.3531, -2.57341, -0.195356, -28.8637, -2.53305, 4.6936, -5.08239, -2.53236, 2.57884, 0.356085, -2.50734, 6.47505, -21.6489, 2.5781, 5.27678, -6.98577, 2.59542, 2.58081, 0.303409, 2.59611, 4.68868, -5.11734, 2.63688, -0.185053, -28.8239, 2.64182, 1.64967, -35.2935, 2.64796, 1.0309, 2.78634, 2.675, -0.2344, 3.91344, 2.70615, 4.43931, -35.7743, 2.98609, -0.2344, 3.29164, 3.00336, 0.370082, 3.40348, 3.32217, 4.43417, -35.066, 4.19026, 2.25957, -0.270445, 4.42477, 6.5123, -11.1249, 4.47145, 6.54771, -20.2487, 5.03953, 4.39496, -5.66208, 5.0673, 2.87826, -2.24722, 5.98278, 2.8782, -3.46554, 6.05505, 6.11065, -28.9891, 6.28603, -0.171573, -22.0617, 6.40311, -0.2344, -5.41345, 6.87257, 3.18229, -5.33472, 7.16437, 0.451708, -23.852, 7.20855, 0.434784, -8.03362, 7.67134, 2.56002, -5.68857, 7.82325, 1.65635, -29.0993, 8.01774, 4.43419, -29.4312, 8.41847, 1.65905, -28.1587, 8.48644, 4.41142, -11.0531, 8.49089, 1.64588, -11.0506, 8.6478, 4.43489, -28.4964 )
