[gd_resource type="ShaderMaterial" load_steps=3 format=2]

[sub_resource type="Shader" id=1]
code = "shader_type canvas_item;
render_mode blend_mix;
uniform sampler2D background: hint_albedo;


void fragment() {
	vec4 c = textureLod( SCREEN_TEXTURE, SCREEN_UV, 0.0);
	vec4 bc = textureLod(background, UV, 0.0);
	if(c.a == 0.0) {
		// Set color to the background
		COLOR = bc;
	} else {
		vec3 nc = (c.rgb * c.a) + (bc.rgb * (1.0 - c.a));
		vec4 nca = vec4(1.0);
		nca.rgb = nc;
		COLOR = nca;
	}
}"

[sub_resource type="ViewportTexture" id=2]
viewport_path = NodePath("Viewport")

[resource]
resource_local_to_scene = true
shader = SubResource( 1 )
shader_param/background = SubResource( 2 )

