[gd_scene load_steps=8 format=2]

[ext_resource path="res://scripts/classes/actors/actor_controlled_turret.gd" type="Script" id=1]
[ext_resource path="res://materials/hull.tres" type="Material" id=2]
[ext_resource path="res://materials/blue.tres" type="Material" id=3]
[ext_resource path="res://materials/energy.tres" type="Material" id=4]

[sub_resource type="ArrayMesh" id=1]
resource_name = "Cube.005"
surfaces/0 = {
"aabb": AABB( -0.999998, -0.291667, -2.25, 2, 0.583333, 4.5 ),
"array_data": PoolByteArray( 85, 181, 170, 180, 85, 181, 0, 60, 0, 129, 0, 0, 255, 187, 170, 180, 85, 181, 0, 60, 0, 129, 0, 0, 255, 187, 170, 180, 170, 189, 0, 60, 0, 129, 0, 0, 85, 181, 170, 180, 127, 192, 0, 60, 0, 129, 0, 0, 255, 179, 170, 52, 127, 61, 0, 60, 192, 87, 65, 0, 255, 185, 170, 52, 63, 60, 0, 60, 192, 87, 65, 0, 255, 187, 170, 180, 170, 61, 0, 60, 192, 87, 65, 0, 85, 181, 170, 180, 127, 64, 0, 60, 192, 87, 65, 0, 255, 185, 170, 52, 255, 51, 0, 60, 140, 50, 0, 0, 255, 187, 170, 180, 85, 53, 0, 60, 140, 50, 0, 0, 255, 187, 170, 180, 170, 61, 0, 60, 140, 50, 0, 0, 255, 185, 170, 52, 63, 60, 0, 60, 140, 50, 0, 0, 0, 60, 170, 180, 85, 53, 0, 60, 116, 50, 0, 0, 0, 58, 170, 52, 255, 51, 0, 60, 116, 50, 0, 0, 0, 58, 170, 52, 63, 60, 0, 60, 116, 50, 0, 0, 0, 60, 170, 180, 170, 61, 0, 60, 116, 50, 0, 0, 85, 181, 170, 180, 127, 192, 0, 60, 192, 87, 191, 0, 255, 187, 170, 180, 170, 189, 0, 60, 192, 87, 191, 0, 255, 185, 170, 52, 63, 188, 0, 60, 192, 87, 191, 0, 255, 179, 170, 52, 127, 189, 0, 60, 192, 87, 191, 0, 0, 60, 170, 180, 170, 189, 0, 60, 116, 50, 0, 0, 0, 58, 170, 52, 63, 188, 0, 60, 116, 50, 0, 0, 0, 58, 170, 52, 0, 180, 0, 60, 116, 50, 0, 0, 0, 60, 170, 180, 85, 181, 0, 60, 116, 50, 0, 0, 0, 60, 170, 180, 85, 181, 0, 60, 116, 50, 0, 0, 0, 58, 170, 52, 0, 180, 0, 60, 116, 50, 0, 0, 0, 58, 170, 52, 255, 51, 0, 60, 116, 50, 0, 0, 0, 60, 170, 180, 85, 53, 0, 60, 116, 50, 0, 0, 255, 185, 170, 52, 63, 188, 0, 60, 140, 50, 0, 0, 255, 187, 170, 180, 170, 189, 0, 60, 140, 50, 0, 0, 255, 187, 170, 180, 85, 181, 0, 60, 140, 50, 0, 0, 255, 185, 170, 52, 0, 180, 0, 60, 140, 50, 0, 0, 255, 185, 170, 52, 0, 180, 0, 60, 140, 50, 0, 0, 255, 187, 170, 180, 85, 181, 0, 60, 140, 50, 0, 0, 255, 187, 170, 180, 85, 53, 0, 60, 140, 50, 0, 0, 255, 185, 170, 52, 255, 51, 0, 60, 140, 50, 0, 0, 85, 181, 170, 180, 127, 64, 0, 60, 0, 129, 0, 0, 255, 187, 170, 180, 170, 61, 0, 60, 0, 129, 0, 0, 255, 187, 170, 180, 85, 53, 0, 60, 0, 129, 0, 0, 85, 181, 170, 180, 85, 53, 0, 60, 0, 129, 0, 0, 85, 181, 170, 180, 85, 53, 0, 60, 0, 129, 0, 0, 255, 187, 170, 180, 85, 53, 0, 60, 0, 129, 0, 0, 255, 187, 170, 180, 85, 181, 0, 60, 0, 129, 0, 0, 85, 181, 170, 180, 85, 181, 0, 60, 0, 129, 0, 0, 0, 60, 170, 180, 85, 53, 0, 60, 0, 130, 0, 0, 85, 53, 170, 180, 85, 53, 0, 60, 0, 130, 0, 0, 85, 53, 170, 180, 85, 181, 0, 60, 0, 130, 0, 0, 0, 60, 170, 180, 85, 181, 0, 60, 0, 130, 0, 0, 85, 53, 170, 180, 85, 53, 0, 60, 0, 129, 0, 0, 85, 53, 170, 180, 85, 181, 0, 60, 0, 129, 0, 0, 0, 60, 170, 180, 170, 61, 0, 60, 0, 129, 0, 0, 85, 53, 170, 180, 127, 64, 0, 60, 0, 129, 0, 0, 85, 53, 170, 180, 85, 53, 0, 60, 0, 129, 0, 0, 0, 60, 170, 180, 85, 53, 0, 60, 0, 129, 0, 0, 85, 53, 170, 180, 127, 64, 0, 60, 0, 129, 0, 0, 85, 181, 170, 180, 127, 64, 0, 60, 0, 129, 0, 0, 0, 60, 170, 180, 170, 189, 0, 60, 64, 87, 191, 0, 85, 53, 170, 180, 127, 192, 0, 60, 64, 87, 191, 0, 0, 52, 170, 52, 127, 189, 0, 60, 64, 87, 191, 0, 0, 58, 170, 52, 63, 188, 0, 60, 64, 87, 191, 0, 85, 53, 170, 180, 127, 192, 0, 60, 0, 105, 186, 0, 85, 181, 170, 180, 127, 192, 0, 60, 0, 105, 186, 0, 255, 179, 170, 52, 127, 189, 0, 60, 0, 105, 186, 0, 0, 52, 170, 52, 127, 189, 0, 60, 0, 105, 186, 0, 0, 58, 170, 52, 63, 60, 0, 60, 64, 87, 65, 0, 0, 52, 170, 52, 127, 61, 0, 60, 64, 87, 65, 0, 85, 53, 170, 180, 127, 64, 0, 60, 64, 87, 65, 0, 0, 60, 170, 180, 170, 61, 0, 60, 64, 87, 65, 0, 0, 52, 170, 52, 127, 61, 0, 60, 0, 105, 70, 0, 255, 179, 170, 52, 127, 61, 0, 60, 0, 105, 70, 0, 85, 181, 170, 180, 127, 64, 0, 60, 0, 105, 70, 0, 85, 53, 170, 180, 127, 64, 0, 60, 0, 105, 70, 0, 0, 60, 170, 180, 85, 181, 0, 60, 0, 129, 0, 0, 85, 53, 170, 180, 85, 181, 0, 60, 0, 129, 0, 0, 85, 53, 170, 180, 127, 192, 0, 60, 0, 129, 0, 0, 0, 60, 170, 180, 170, 189, 0, 60, 0, 129, 0, 0, 85, 181, 170, 180, 127, 192, 0, 60, 0, 129, 0, 0, 85, 53, 170, 180, 127, 192, 0, 60, 0, 129, 0, 0, 255, 179, 170, 52, 255, 51, 0, 60, 0, 126, 0, 0, 255, 185, 170, 52, 255, 51, 0, 60, 0, 126, 0, 0, 255, 185, 170, 52, 63, 60, 0, 60, 0, 126, 0, 0, 255, 179, 170, 52, 127, 61, 0, 60, 0, 126, 0, 0, 255, 179, 170, 52, 127, 189, 0, 60, 0, 126, 0, 0, 255, 185, 170, 52, 63, 188, 0, 60, 0, 126, 0, 0, 255, 185, 170, 52, 0, 180, 0, 60, 0, 126, 0, 0, 255, 179, 170, 52, 0, 180, 0, 60, 0, 126, 0, 0, 255, 179, 170, 52, 0, 180, 0, 60, 0, 127, 0, 0, 255, 185, 170, 52, 0, 180, 0, 60, 0, 127, 0, 0, 255, 185, 170, 52, 255, 51, 0, 60, 0, 127, 0, 0, 255, 179, 170, 52, 255, 51, 0, 60, 0, 127, 0, 0, 0, 58, 170, 52, 0, 180, 0, 60, 0, 127, 0, 0, 0, 52, 170, 52, 0, 180, 0, 60, 0, 127, 0, 0, 0, 52, 170, 52, 255, 51, 0, 60, 0, 127, 0, 0, 0, 58, 170, 52, 255, 51, 0, 60, 0, 127, 0, 0, 0, 58, 170, 52, 63, 188, 0, 60, 0, 126, 0, 0, 0, 52, 170, 52, 127, 189, 0, 60, 0, 126, 0, 0, 0, 52, 170, 52, 0, 180, 0, 60, 0, 126, 0, 0, 0, 58, 170, 52, 0, 180, 0, 60, 0, 126, 0, 0, 0, 52, 170, 52, 127, 189, 0, 60, 0, 127, 0, 0, 255, 179, 170, 52, 127, 189, 0, 60, 0, 127, 0, 0, 0, 58, 170, 52, 255, 51, 0, 60, 0, 126, 0, 0, 0, 52, 170, 52, 255, 51, 0, 60, 0, 126, 0, 0, 0, 52, 170, 52, 127, 61, 0, 60, 0, 126, 0, 0, 0, 58, 170, 52, 63, 60, 0, 60, 0, 126, 0, 0, 255, 179, 170, 52, 127, 61, 0, 60, 0, 127, 0, 0, 0, 52, 170, 52, 127, 61, 0, 60, 0, 127, 0, 0 ),
"array_index_data": PoolByteArray( 0, 0, 2, 0, 1, 0, 0, 0, 3, 0, 2, 0, 4, 0, 6, 0, 5, 0, 4, 0, 7, 0, 6, 0, 8, 0, 10, 0, 9, 0, 8, 0, 11, 0, 10, 0, 12, 0, 14, 0, 13, 0, 12, 0, 15, 0, 14, 0, 16, 0, 18, 0, 17, 0, 16, 0, 19, 0, 18, 0, 20, 0, 22, 0, 21, 0, 20, 0, 23, 0, 22, 0, 24, 0, 26, 0, 25, 0, 24, 0, 27, 0, 26, 0, 28, 0, 30, 0, 29, 0, 28, 0, 31, 0, 30, 0, 32, 0, 34, 0, 33, 0, 32, 0, 35, 0, 34, 0, 36, 0, 38, 0, 37, 0, 36, 0, 39, 0, 38, 0, 40, 0, 42, 0, 41, 0, 40, 0, 43, 0, 42, 0, 44, 0, 46, 0, 45, 0, 44, 0, 47, 0, 46, 0, 48, 0, 43, 0, 40, 0, 48, 0, 49, 0, 43, 0, 50, 0, 52, 0, 51, 0, 50, 0, 53, 0, 52, 0, 54, 0, 40, 0, 55, 0, 54, 0, 48, 0, 40, 0, 56, 0, 58, 0, 57, 0, 56, 0, 59, 0, 58, 0, 60, 0, 62, 0, 61, 0, 60, 0, 63, 0, 62, 0, 64, 0, 66, 0, 65, 0, 64, 0, 67, 0, 66, 0, 68, 0, 70, 0, 69, 0, 68, 0, 71, 0, 70, 0, 72, 0, 74, 0, 73, 0, 72, 0, 75, 0, 74, 0, 49, 0, 76, 0, 43, 0, 49, 0, 77, 0, 76, 0, 78, 0, 80, 0, 79, 0, 78, 0, 81, 0, 80, 0, 82, 0, 84, 0, 83, 0, 82, 0, 85, 0, 84, 0, 86, 0, 88, 0, 87, 0, 86, 0, 89, 0, 88, 0, 90, 0, 92, 0, 91, 0, 90, 0, 93, 0, 92, 0, 91, 0, 89, 0, 86, 0, 91, 0, 92, 0, 89, 0, 94, 0, 96, 0, 95, 0, 94, 0, 97, 0, 96, 0, 98, 0, 86, 0, 99, 0, 98, 0, 91, 0, 86, 0, 100, 0, 102, 0, 101, 0, 100, 0, 103, 0, 102, 0, 92, 0, 104, 0, 89, 0, 92, 0, 105, 0, 104, 0 ),
"blend_shape_data": [  ],
"format": 98051,
"index_count": 180,
"material": ExtResource( 2 ),
"name": "mat",
"primitive": 4,
"skeleton_aabb": [  ],
"vertex_count": 106
}

[sub_resource type="ArrayMesh" id=2]
resource_name = "Cube.001"
surfaces/0 = {
"aabb": AABB( -0.75, -0.316965, -1.375, 1.5, 0.62501, 2.75001 ),
"array_data": PoolByteArray( 255, 179, 237, 52, 127, 61, 0, 60, 0, 0, 127, 0, 255, 179, 48, 36, 127, 61, 0, 60, 0, 0, 127, 0, 0, 52, 48, 36, 127, 61, 0, 60, 0, 0, 127, 0, 0, 52, 237, 52, 127, 61, 0, 60, 0, 0, 127, 0, 170, 184, 190, 39, 255, 51, 0, 60, 175, 97, 0, 0, 255, 185, 243, 174, 255, 51, 0, 60, 175, 97, 0, 0, 255, 185, 243, 174, 63, 60, 0, 60, 175, 97, 0, 0, 170, 184, 190, 39, 170, 60, 0, 60, 175, 97, 0, 0, 170, 184, 190, 39, 170, 188, 0, 60, 175, 97, 0, 0, 255, 185, 243, 174, 63, 188, 0, 60, 175, 97, 0, 0, 255, 185, 243, 174, 0, 180, 0, 60, 175, 97, 0, 0, 170, 184, 190, 39, 0, 180, 0, 60, 175, 97, 0, 0, 170, 184, 190, 39, 0, 180, 0, 60, 175, 97, 0, 0, 255, 185, 243, 174, 0, 180, 0, 60, 175, 97, 0, 0, 255, 185, 243, 174, 255, 51, 0, 60, 175, 97, 0, 0, 170, 184, 190, 39, 255, 51, 0, 60, 175, 97, 0, 0, 170, 54, 105, 49, 0, 180, 0, 60, 81, 97, 0, 0, 0, 52, 237, 52, 0, 180, 0, 60, 81, 97, 0, 0, 0, 52, 237, 52, 255, 51, 0, 60, 81, 97, 0, 0, 170, 54, 105, 49, 255, 51, 0, 60, 81, 97, 0, 0, 0, 52, 237, 52, 0, 180, 0, 60, 0, 127, 0, 0, 255, 179, 237, 52, 0, 180, 0, 60, 0, 127, 0, 0, 255, 179, 237, 52, 255, 51, 0, 60, 0, 127, 0, 0, 0, 52, 237, 52, 255, 51, 0, 60, 0, 127, 0, 0, 170, 54, 105, 49, 21, 189, 0, 60, 81, 97, 0, 0, 0, 52, 237, 52, 127, 189, 0, 60, 81, 97, 0, 0, 0, 52, 237, 52, 0, 180, 0, 60, 81, 97, 0, 0, 170, 54, 105, 49, 0, 180, 0, 60, 81, 97, 0, 0, 0, 52, 237, 52, 127, 189, 0, 60, 0, 127, 0, 0, 255, 179, 237, 52, 127, 189, 0, 60, 0, 127, 0, 0, 170, 54, 105, 49, 255, 51, 0, 60, 81, 97, 0, 0, 0, 52, 237, 52, 255, 51, 0, 60, 81, 97, 0, 0, 0, 52, 237, 52, 127, 61, 0, 60, 81, 97, 0, 0, 170, 54, 105, 49, 21, 61, 0, 60, 81, 97, 0, 0, 255, 179, 237, 52, 127, 61, 0, 60, 0, 127, 0, 0, 0, 52, 237, 52, 127, 61, 0, 60, 0, 127, 0, 0, 255, 179, 48, 36, 127, 61, 0, 60, 189, 0, 107, 0, 255, 179, 237, 52, 127, 61, 0, 60, 189, 0, 107, 0, 170, 182, 105, 49, 21, 61, 0, 60, 189, 0, 107, 0, 170, 184, 190, 39, 170, 60, 0, 60, 189, 0, 107, 0, 255, 185, 243, 174, 63, 60, 0, 60, 189, 0, 107, 0, 0, 52, 237, 52, 127, 61, 0, 60, 67, 0, 107, 0, 0, 52, 48, 36, 127, 61, 0, 60, 67, 0, 107, 0, 255, 57, 243, 174, 63, 60, 0, 60, 67, 0, 107, 0, 170, 56, 190, 39, 170, 60, 0, 60, 67, 0, 107, 0, 170, 54, 105, 49, 21, 61, 0, 60, 67, 0, 107, 0, 0, 52, 237, 52, 127, 189, 0, 60, 0, 0, 129, 0, 0, 52, 48, 36, 127, 189, 0, 60, 0, 0, 129, 0, 255, 179, 48, 36, 127, 189, 0, 60, 0, 0, 129, 0, 255, 179, 237, 52, 127, 189, 0, 60, 0, 0, 129, 0, 255, 179, 237, 52, 127, 189, 0, 60, 189, 0, 149, 0, 255, 179, 48, 36, 127, 189, 0, 60, 189, 0, 149, 0, 255, 185, 243, 174, 63, 188, 0, 60, 189, 0, 149, 0, 170, 184, 190, 39, 170, 188, 0, 60, 189, 0, 149, 0, 170, 182, 105, 49, 21, 189, 0, 60, 189, 0, 149, 0, 0, 52, 237, 52, 127, 189, 0, 60, 67, 0, 149, 0, 170, 54, 105, 49, 21, 189, 0, 60, 67, 0, 149, 0, 170, 56, 190, 39, 170, 188, 0, 60, 67, 0, 149, 0, 255, 57, 243, 174, 63, 188, 0, 60, 67, 0, 149, 0, 0, 52, 48, 36, 127, 189, 0, 60, 67, 0, 149, 0, 0, 52, 48, 36, 127, 61, 0, 60, 11, 161, 82, 0, 255, 179, 48, 36, 127, 61, 0, 60, 11, 161, 82, 0, 255, 179, 18, 181, 63, 60, 0, 60, 11, 161, 82, 0, 0, 52, 36, 178, 63, 60, 0, 60, 11, 161, 82, 0, 255, 57, 243, 174, 63, 60, 0, 60, 20, 131, 0, 0, 0, 52, 36, 178, 63, 60, 0, 60, 20, 131, 0, 0, 0, 52, 36, 178, 255, 51, 0, 60, 20, 131, 0, 0, 255, 57, 243, 174, 255, 51, 0, 60, 20, 131, 0, 0, 255, 185, 243, 174, 0, 180, 0, 60, 236, 131, 0, 0, 255, 179, 36, 178, 0, 180, 0, 60, 236, 131, 0, 0, 255, 179, 36, 178, 255, 51, 0, 60, 236, 131, 0, 0, 255, 185, 243, 174, 255, 51, 0, 60, 236, 131, 0, 0, 255, 57, 243, 174, 0, 180, 0, 60, 20, 131, 0, 0, 0, 52, 36, 178, 0, 180, 0, 60, 20, 131, 0, 0, 0, 52, 36, 178, 63, 188, 0, 60, 20, 131, 0, 0, 255, 57, 243, 174, 63, 188, 0, 60, 20, 131, 0, 0, 0, 52, 48, 36, 127, 189, 0, 60, 0, 151, 186, 0, 0, 52, 36, 178, 63, 188, 0, 60, 0, 151, 186, 0, 255, 179, 36, 178, 63, 188, 0, 60, 0, 151, 186, 0, 255, 179, 48, 36, 127, 189, 0, 60, 0, 151, 186, 0, 0, 52, 36, 178, 255, 51, 0, 60, 20, 131, 0, 0, 0, 52, 36, 178, 0, 180, 0, 60, 20, 131, 0, 0, 255, 57, 243, 174, 0, 180, 0, 60, 20, 131, 0, 0, 255, 57, 243, 174, 255, 51, 0, 60, 20, 131, 0, 0, 0, 52, 36, 178, 63, 188, 0, 60, 0, 130, 0, 0, 0, 52, 36, 178, 0, 180, 0, 60, 0, 130, 0, 0, 255, 179, 36, 178, 0, 180, 0, 60, 0, 130, 0, 0, 255, 179, 36, 178, 63, 188, 0, 60, 0, 130, 0, 0, 0, 52, 36, 178, 63, 60, 0, 60, 17, 152, 69, 0, 255, 57, 243, 174, 63, 60, 0, 60, 17, 152, 69, 0, 0, 52, 48, 36, 127, 61, 0, 60, 17, 152, 69, 0, 0, 52, 36, 178, 63, 188, 0, 60, 17, 152, 187, 0, 0, 52, 48, 36, 127, 189, 0, 60, 17, 152, 187, 0, 255, 57, 243, 174, 63, 188, 0, 60, 17, 152, 187, 0, 0, 52, 36, 178, 255, 51, 0, 60, 15, 131, 247, 0, 0, 52, 36, 178, 63, 60, 0, 60, 15, 131, 247, 0, 255, 179, 18, 181, 63, 60, 0, 60, 15, 131, 247, 0, 255, 179, 36, 178, 255, 51, 0, 60, 15, 131, 247, 0, 255, 179, 36, 178, 255, 51, 0, 60, 0, 129, 0, 0, 255, 179, 36, 178, 0, 180, 0, 60, 0, 129, 0, 0, 0, 52, 36, 178, 0, 180, 0, 60, 0, 129, 0, 0, 0, 52, 36, 178, 255, 51, 0, 60, 0, 129, 0, 0, 255, 179, 36, 178, 255, 51, 0, 60, 221, 135, 247, 0, 255, 179, 18, 181, 63, 60, 0, 60, 221, 135, 247, 0, 255, 185, 243, 174, 63, 60, 0, 60, 221, 135, 247, 0, 255, 185, 243, 174, 255, 51, 0, 60, 221, 135, 247, 0, 255, 179, 18, 181, 63, 60, 0, 60, 222, 173, 89, 0, 255, 179, 48, 36, 127, 61, 0, 60, 222, 173, 89, 0, 255, 185, 243, 174, 63, 60, 0, 60, 222, 173, 89, 0, 255, 179, 36, 178, 63, 188, 0, 60, 236, 131, 0, 0, 255, 179, 36, 178, 0, 180, 0, 60, 236, 131, 0, 0, 255, 185, 243, 174, 0, 180, 0, 60, 236, 131, 0, 0, 255, 185, 243, 174, 63, 188, 0, 60, 236, 131, 0, 0, 255, 179, 48, 36, 127, 189, 0, 60, 239, 152, 187, 0, 255, 179, 36, 178, 63, 188, 0, 60, 239, 152, 187, 0, 255, 185, 243, 174, 63, 188, 0, 60, 239, 152, 187, 0, 255, 57, 243, 174, 255, 51, 0, 60, 81, 97, 0, 0, 170, 56, 190, 39, 255, 51, 0, 60, 81, 97, 0, 0, 170, 56, 190, 39, 170, 60, 0, 60, 81, 97, 0, 0, 255, 57, 243, 174, 63, 60, 0, 60, 81, 97, 0, 0, 255, 57, 243, 174, 63, 188, 0, 60, 81, 97, 0, 0, 170, 56, 190, 39, 170, 188, 0, 60, 81, 97, 0, 0, 170, 56, 190, 39, 0, 180, 0, 60, 81, 97, 0, 0, 255, 57, 243, 174, 0, 180, 0, 60, 81, 97, 0, 0, 170, 56, 190, 39, 255, 51, 0, 60, 81, 97, 0, 0, 255, 57, 243, 174, 255, 51, 0, 60, 81, 97, 0, 0, 255, 179, 237, 52, 0, 180, 0, 60, 175, 97, 0, 0, 170, 182, 105, 49, 0, 180, 0, 60, 175, 97, 0, 0, 170, 182, 105, 49, 255, 51, 0, 60, 175, 97, 0, 0, 255, 179, 237, 52, 255, 51, 0, 60, 175, 97, 0, 0, 255, 179, 237, 52, 127, 189, 0, 60, 175, 97, 0, 0, 170, 182, 105, 49, 21, 189, 0, 60, 175, 97, 0, 0, 170, 182, 105, 49, 0, 180, 0, 60, 175, 97, 0, 0, 255, 179, 237, 52, 0, 180, 0, 60, 175, 97, 0, 0, 255, 179, 237, 52, 255, 51, 0, 60, 175, 97, 0, 0, 170, 182, 105, 49, 255, 51, 0, 60, 175, 97, 0, 0, 170, 182, 105, 49, 21, 61, 0, 60, 175, 97, 0, 0, 255, 179, 237, 52, 127, 61, 0, 60, 175, 97, 0, 0 ),
"array_index_data": PoolByteArray( 0, 0, 2, 0, 1, 0, 0, 0, 3, 0, 2, 0, 4, 0, 6, 0, 5, 0, 4, 0, 7, 0, 6, 0, 8, 0, 10, 0, 9, 0, 8, 0, 11, 0, 10, 0, 12, 0, 14, 0, 13, 0, 12, 0, 15, 0, 14, 0, 16, 0, 18, 0, 17, 0, 16, 0, 19, 0, 18, 0, 20, 0, 22, 0, 21, 0, 20, 0, 23, 0, 22, 0, 24, 0, 26, 0, 25, 0, 24, 0, 27, 0, 26, 0, 28, 0, 21, 0, 29, 0, 28, 0, 20, 0, 21, 0, 30, 0, 32, 0, 31, 0, 30, 0, 33, 0, 32, 0, 23, 0, 34, 0, 22, 0, 23, 0, 35, 0, 34, 0, 36, 0, 38, 0, 37, 0, 36, 0, 39, 0, 38, 0, 36, 0, 40, 0, 39, 0, 41, 0, 43, 0, 42, 0, 41, 0, 44, 0, 43, 0, 41, 0, 45, 0, 44, 0, 46, 0, 48, 0, 47, 0, 46, 0, 49, 0, 48, 0, 50, 0, 52, 0, 51, 0, 50, 0, 53, 0, 52, 0, 50, 0, 54, 0, 53, 0, 55, 0, 57, 0, 56, 0, 55, 0, 58, 0, 57, 0, 55, 0, 59, 0, 58, 0, 60, 0, 62, 0, 61, 0, 60, 0, 63, 0, 62, 0, 64, 0, 66, 0, 65, 0, 64, 0, 67, 0, 66, 0, 68, 0, 70, 0, 69, 0, 68, 0, 71, 0, 70, 0, 72, 0, 74, 0, 73, 0, 72, 0, 75, 0, 74, 0, 76, 0, 78, 0, 77, 0, 76, 0, 79, 0, 78, 0, 80, 0, 82, 0, 81, 0, 80, 0, 83, 0, 82, 0, 84, 0, 86, 0, 85, 0, 84, 0, 87, 0, 86, 0, 88, 0, 90, 0, 89, 0, 91, 0, 93, 0, 92, 0, 94, 0, 96, 0, 95, 0, 94, 0, 97, 0, 96, 0, 98, 0, 100, 0, 99, 0, 98, 0, 101, 0, 100, 0, 102, 0, 104, 0, 103, 0, 102, 0, 105, 0, 104, 0, 106, 0, 108, 0, 107, 0, 109, 0, 111, 0, 110, 0, 109, 0, 112, 0, 111, 0, 113, 0, 115, 0, 114, 0, 116, 0, 118, 0, 117, 0, 116, 0, 119, 0, 118, 0, 120, 0, 122, 0, 121, 0, 120, 0, 123, 0, 122, 0, 123, 0, 124, 0, 122, 0, 123, 0, 125, 0, 124, 0, 126, 0, 128, 0, 127, 0, 126, 0, 129, 0, 128, 0, 130, 0, 132, 0, 131, 0, 130, 0, 133, 0, 132, 0, 134, 0, 136, 0, 135, 0, 134, 0, 137, 0, 136, 0 ),
"blend_shape_data": [  ],
"format": 98051,
"index_count": 216,
"material": ExtResource( 2 ),
"name": "mat",
"primitive": 4,
"skeleton_aabb": [  ],
"vertex_count": 138
}
surfaces/1 = {
"aabb": AABB( -0.583333, 0.0302576, -1.27083, 1.16668, 0.138889, 2.54167 ),
"array_data": PoolByteArray( 170, 56, 190, 39, 255, 51, 0, 60, 81, 97, 0, 0, 170, 54, 105, 49, 255, 51, 0, 60, 81, 97, 0, 0, 170, 54, 105, 49, 21, 61, 0, 60, 81, 97, 0, 0, 170, 56, 190, 39, 170, 60, 0, 60, 81, 97, 0, 0, 170, 56, 190, 39, 170, 188, 0, 60, 81, 97, 0, 0, 170, 54, 105, 49, 21, 189, 0, 60, 81, 97, 0, 0, 170, 54, 105, 49, 0, 180, 0, 60, 81, 97, 0, 0, 170, 56, 190, 39, 0, 180, 0, 60, 81, 97, 0, 0, 170, 56, 190, 39, 0, 180, 0, 60, 81, 97, 0, 0, 170, 54, 105, 49, 0, 180, 0, 60, 81, 97, 0, 0, 170, 54, 105, 49, 255, 51, 0, 60, 81, 97, 0, 0, 170, 56, 190, 39, 255, 51, 0, 60, 81, 97, 0, 0, 170, 182, 105, 49, 0, 180, 0, 60, 175, 97, 0, 0, 170, 184, 190, 39, 0, 180, 0, 60, 175, 97, 0, 0, 170, 184, 190, 39, 255, 51, 0, 60, 175, 97, 0, 0, 170, 182, 105, 49, 255, 51, 0, 60, 175, 97, 0, 0, 170, 182, 105, 49, 21, 189, 0, 60, 175, 97, 0, 0, 170, 184, 190, 39, 170, 188, 0, 60, 175, 97, 0, 0, 170, 184, 190, 39, 0, 180, 0, 60, 175, 97, 0, 0, 170, 182, 105, 49, 0, 180, 0, 60, 175, 97, 0, 0, 170, 182, 105, 49, 255, 51, 0, 60, 175, 97, 0, 0, 170, 184, 190, 39, 255, 51, 0, 60, 175, 97, 0, 0, 170, 184, 190, 39, 170, 60, 0, 60, 175, 97, 0, 0, 170, 182, 105, 49, 21, 61, 0, 60, 175, 97, 0, 0 ),
"array_index_data": PoolByteArray( 0, 0, 2, 0, 1, 0, 0, 0, 3, 0, 2, 0, 4, 0, 6, 0, 5, 0, 4, 0, 7, 0, 6, 0, 8, 0, 10, 0, 9, 0, 8, 0, 11, 0, 10, 0, 12, 0, 14, 0, 13, 0, 12, 0, 15, 0, 14, 0, 16, 0, 18, 0, 17, 0, 16, 0, 19, 0, 18, 0, 20, 0, 22, 0, 21, 0, 20, 0, 23, 0, 22, 0 ),
"blend_shape_data": [  ],
"format": 98051,
"index_count": 36,
"material": ExtResource( 3 ),
"name": "bluemat",
"primitive": 4,
"skeleton_aabb": [  ],
"vertex_count": 24
}

[sub_resource type="ArrayMesh" id=3]
resource_name = "Cube.006"
surfaces/0 = {
"aabb": AABB( -0.202073, -0.175307, -5.125, 0.404146, 0.466677, 5.2399 ),
"array_data": PoolByteArray( 0, 0, 169, 52, 31, 197, 0, 60, 63, 109, 0, 0, 0, 0, 169, 52, 90, 47, 0, 60, 63, 109, 0, 0, 119, 50, 151, 49, 90, 47, 0, 60, 63, 109, 0, 0, 119, 50, 151, 49, 31, 197, 0, 60, 63, 109, 0, 0, 119, 178, 6, 141, 10, 197, 0, 60, 0, 127, 0, 0, 119, 178, 6, 141, 90, 47, 0, 60, 0, 127, 0, 0, 153, 176, 6, 141, 90, 47, 0, 60, 0, 127, 0, 0, 153, 176, 6, 141, 10, 197, 0, 60, 0, 127, 0, 0, 119, 178, 129, 171, 31, 197, 0, 60, 129, 0, 0, 0, 119, 178, 129, 171, 90, 47, 0, 60, 129, 0, 0, 0, 119, 178, 6, 141, 90, 47, 0, 60, 129, 0, 0, 0, 119, 178, 6, 141, 10, 197, 0, 60, 129, 0, 0, 0, 119, 50, 6, 141, 10, 197, 0, 60, 127, 0, 0, 0, 119, 50, 6, 141, 90, 47, 0, 60, 127, 0, 0, 0, 119, 50, 129, 171, 90, 47, 0, 60, 127, 0, 0, 0, 119, 50, 129, 171, 31, 197, 0, 60, 127, 0, 0, 0, 119, 50, 129, 171, 31, 197, 0, 60, 63, 147, 0, 0, 119, 50, 129, 171, 90, 47, 0, 60, 63, 147, 0, 0, 0, 0, 156, 177, 90, 47, 0, 60, 63, 147, 0, 0, 0, 0, 156, 177, 31, 197, 0, 60, 63, 147, 0, 0, 119, 178, 114, 47, 10, 197, 0, 60, 129, 0, 0, 0, 119, 178, 114, 47, 90, 47, 0, 60, 129, 0, 0, 0, 119, 178, 151, 49, 90, 47, 0, 60, 129, 0, 0, 0, 119, 178, 151, 49, 31, 197, 0, 60, 129, 0, 0, 0, 119, 178, 151, 49, 31, 197, 0, 60, 193, 109, 0, 0, 119, 178, 151, 49, 90, 47, 0, 60, 193, 109, 0, 0, 0, 0, 169, 52, 90, 47, 0, 60, 193, 109, 0, 0, 0, 0, 169, 52, 31, 197, 0, 60, 193, 109, 0, 0, 119, 50, 151, 49, 31, 197, 0, 60, 127, 0, 0, 0, 119, 50, 151, 49, 90, 47, 0, 60, 127, 0, 0, 0, 119, 50, 114, 47, 90, 47, 0, 60, 127, 0, 0, 0, 119, 50, 114, 47, 10, 197, 0, 60, 127, 0, 0, 0, 0, 0, 156, 177, 31, 197, 0, 60, 193, 147, 0, 0, 0, 0, 156, 177, 90, 47, 0, 60, 193, 147, 0, 0, 119, 178, 129, 171, 90, 47, 0, 60, 193, 147, 0, 0, 119, 178, 129, 171, 31, 197, 0, 60, 193, 147, 0, 0, 119, 50, 114, 47, 10, 197, 0, 60, 0, 129, 0, 0, 119, 50, 114, 47, 90, 47, 0, 60, 0, 129, 0, 0, 153, 48, 114, 47, 90, 47, 0, 60, 0, 129, 0, 0, 153, 48, 114, 47, 10, 197, 0, 60, 0, 129, 0, 0, 119, 178, 114, 47, 90, 47, 0, 60, 0, 129, 0, 0, 119, 178, 114, 47, 10, 197, 0, 60, 0, 129, 0, 0, 153, 176, 114, 47, 10, 197, 0, 60, 0, 129, 0, 0, 153, 176, 114, 47, 90, 47, 0, 60, 0, 129, 0, 0, 119, 50, 114, 47, 10, 197, 0, 60, 0, 152, 184, 0, 153, 48, 114, 47, 10, 197, 0, 60, 0, 152, 184, 0, 119, 50, 151, 49, 31, 197, 0, 60, 0, 152, 184, 0, 0, 0, 169, 52, 31, 197, 0, 60, 208, 176, 171, 0, 119, 50, 151, 49, 31, 197, 0, 60, 208, 176, 171, 0, 153, 48, 114, 47, 10, 197, 0, 60, 208, 176, 171, 0, 0, 0, 168, 50, 10, 197, 0, 60, 208, 176, 171, 0, 119, 178, 151, 49, 31, 197, 0, 60, 0, 152, 184, 0, 153, 176, 114, 47, 10, 197, 0, 60, 0, 152, 184, 0, 119, 178, 114, 47, 10, 197, 0, 60, 0, 152, 184, 0, 0, 0, 169, 52, 31, 197, 0, 60, 48, 176, 171, 0, 0, 0, 168, 50, 10, 197, 0, 60, 48, 176, 171, 0, 153, 176, 114, 47, 10, 197, 0, 60, 48, 176, 171, 0, 119, 178, 151, 49, 31, 197, 0, 60, 48, 176, 171, 0, 119, 50, 6, 141, 90, 47, 0, 60, 0, 127, 0, 0, 119, 50, 6, 141, 10, 197, 0, 60, 0, 127, 0, 0, 153, 48, 6, 141, 10, 197, 0, 60, 0, 127, 0, 0, 153, 48, 6, 141, 90, 47, 0, 60, 0, 127, 0, 0, 119, 178, 6, 141, 10, 197, 0, 60, 0, 104, 184, 0, 153, 176, 6, 141, 10, 197, 0, 60, 0, 104, 184, 0, 119, 178, 129, 171, 31, 197, 0, 60, 0, 104, 184, 0, 0, 0, 156, 177, 31, 197, 0, 60, 48, 80, 171, 0, 119, 178, 129, 171, 31, 197, 0, 60, 48, 80, 171, 0, 153, 176, 6, 141, 10, 197, 0, 60, 48, 80, 171, 0, 0, 0, 226, 173, 10, 197, 0, 60, 48, 80, 171, 0, 119, 50, 129, 171, 31, 197, 0, 60, 0, 104, 184, 0, 153, 48, 6, 141, 10, 197, 0, 60, 0, 104, 184, 0, 119, 50, 6, 141, 10, 197, 0, 60, 0, 104, 184, 0, 0, 0, 156, 177, 31, 197, 0, 60, 208, 80, 171, 0, 0, 0, 226, 173, 10, 197, 0, 60, 208, 80, 171, 0, 153, 48, 6, 141, 10, 197, 0, 60, 208, 80, 171, 0, 119, 50, 129, 171, 31, 197, 0, 60, 208, 80, 171, 0 ),
"array_index_data": PoolByteArray( 0, 0, 2, 0, 1, 0, 0, 0, 3, 0, 2, 0, 4, 0, 6, 0, 5, 0, 4, 0, 7, 0, 6, 0, 8, 0, 10, 0, 9, 0, 8, 0, 11, 0, 10, 0, 12, 0, 14, 0, 13, 0, 12, 0, 15, 0, 14, 0, 16, 0, 18, 0, 17, 0, 16, 0, 19, 0, 18, 0, 20, 0, 22, 0, 21, 0, 20, 0, 23, 0, 22, 0, 24, 0, 26, 0, 25, 0, 24, 0, 27, 0, 26, 0, 28, 0, 30, 0, 29, 0, 28, 0, 31, 0, 30, 0, 32, 0, 34, 0, 33, 0, 32, 0, 35, 0, 34, 0, 36, 0, 38, 0, 37, 0, 36, 0, 39, 0, 38, 0, 40, 0, 42, 0, 41, 0, 40, 0, 43, 0, 42, 0, 44, 0, 46, 0, 45, 0, 47, 0, 49, 0, 48, 0, 47, 0, 50, 0, 49, 0, 51, 0, 53, 0, 52, 0, 54, 0, 56, 0, 55, 0, 54, 0, 57, 0, 56, 0, 58, 0, 60, 0, 59, 0, 58, 0, 61, 0, 60, 0, 62, 0, 64, 0, 63, 0, 65, 0, 67, 0, 66, 0, 65, 0, 68, 0, 67, 0, 69, 0, 71, 0, 70, 0, 72, 0, 74, 0, 73, 0, 72, 0, 75, 0, 74, 0 ),
"blend_shape_data": [  ],
"format": 98051,
"index_count": 108,
"material": ExtResource( 2 ),
"name": "mat",
"primitive": 4,
"skeleton_aabb": [  ],
"vertex_count": 76
}
surfaces/1 = {
"aabb": AABB( -0.143739, -0.0919732, -5.04167, 0.287489, 0.3, 5.15657 ),
"array_data": PoolByteArray( 153, 48, 114, 47, 90, 47, 0, 60, 188, 149, 0, 0, 0, 0, 168, 50, 90, 47, 0, 60, 188, 149, 0, 0, 0, 0, 168, 50, 10, 197, 0, 60, 188, 149, 0, 0, 153, 48, 114, 47, 10, 197, 0, 60, 188, 149, 0, 0, 153, 176, 114, 47, 90, 47, 0, 60, 68, 149, 0, 0, 153, 176, 114, 47, 10, 197, 0, 60, 68, 149, 0, 0, 0, 0, 168, 50, 10, 197, 0, 60, 68, 149, 0, 0, 0, 0, 168, 50, 90, 47, 0, 60, 68, 149, 0, 0, 153, 176, 6, 141, 90, 47, 0, 60, 68, 107, 0, 0, 0, 0, 226, 173, 90, 47, 0, 60, 68, 107, 0, 0, 0, 0, 226, 173, 10, 197, 0, 60, 68, 107, 0, 0, 153, 176, 6, 141, 10, 197, 0, 60, 68, 107, 0, 0, 153, 48, 6, 141, 90, 47, 0, 60, 188, 107, 0, 0, 153, 48, 6, 141, 10, 197, 0, 60, 188, 107, 0, 0, 0, 0, 226, 173, 10, 197, 0, 60, 188, 107, 0, 0, 0, 0, 226, 173, 90, 47, 0, 60, 188, 107, 0, 0 ),
"array_index_data": PoolByteArray( 0, 0, 2, 0, 1, 0, 0, 0, 3, 0, 2, 0, 4, 0, 6, 0, 5, 0, 4, 0, 7, 0, 6, 0, 8, 0, 10, 0, 9, 0, 8, 0, 11, 0, 10, 0, 12, 0, 14, 0, 13, 0, 12, 0, 15, 0, 14, 0 ),
"blend_shape_data": [  ],
"format": 98051,
"index_count": 24,
"material": ExtResource( 4 ),
"name": "energy",
"primitive": 4,
"skeleton_aabb": [  ],
"vertex_count": 16
}

[node name="HornetTurret" type="Spatial"]
script = ExtResource( 1 )
MAX_PITCH = 45.0
MIN_PITCH = -5.0
PITCH_MARGIN = 2.0
TURN_SPEED = 0.25
head_node_path = NodePath("TurretBase/TurretHead")
barrel_node_path = NodePath("TurretBase/TurretHead/TurretBarrel")
egress_node_path = NodePath("TurretBase/TurretHead/TurretBarrel/EgressNode")

[node name="TurretBase" type="MeshInstance" parent="."]
transform = Transform( 1, 0, 0, 0, 1, 0, 0, 0, 1, -9.53674e-07, 0, 1.19209e-07 )
use_in_baked_light = true
mesh = SubResource( 1 )
material/0 = null

[node name="TurretHead" type="MeshInstance" parent="TurretBase"]
transform = Transform( 1, 0, 0, 0, 1, 0, 3.57628e-08, 0, 1, 2.38419e-06, 0.483631, 0 )
use_in_baked_light = true
mesh = SubResource( 2 )
material/0 = null
material/1 = null

[node name="TurretBarrel" type="MeshInstance" parent="TurretBase/TurretHead"]
use_in_baked_light = true
mesh = SubResource( 3 )
material/0 = null
material/1 = null

[node name="EgressNode" type="Position3D" parent="TurretBase/TurretHead/TurretBarrel"]
transform = Transform( 0.999999, 0, 0, 0, 0.999999, 0, -3.55271e-15, 0, 0.999999, 0, 0.0611153, -1.80657 )
